[
  {
    "id": "728659fd-665a-4748-0ea6-3a0058a88eaa",
    "userId": "b309424d-4893-866c-87db-3a004f106197",
    "userType": 1,
    "userName": "沈雨婷",
    "userImg": "https://oss.dayulong.cn/20211130013352264_e940ec61-ff60-4008-81e2-d94ef9c8c609.jpg",
    "video": "",
    "vodVideoId": "c505b5bc278b4153928a706c800cb220",
    "pic": "https://oss.dayulong.cn/20211122151053017_a2d30dfe-1b69-4f7b-b2f2-255e840fc773.jpg",
    "text": "",
    "videoTime": "24.45",
    "videoType": 0,
    "width": "1280",
    "high": "724",
    "support": 0,
    "followStatus": 0,
    "creationTime": "2021-11-22 15:10:52",
    "forwardingNumber": 0,
    "commentsCount": 0,
    "isGiveLike": "false",
    "isFollow": true,
    "isSelf": false,
    "teacherId": "2c8fe9af-5847-2340-8f26-3a0054eb20f0",
    "teacherUserId": "b309424d-4893-866c-87db-3a004f106197",
    "grade": 3,
    "teacherName": "沈雨婷",
    "teacherIconPicUrl": "https://oss.dayulong.cn/20211124105614835_710a08a0-e452-4705-b403-377006b9cb82.jpg",
    "businessName": "陆家嘴",
    "category": 2
  },
  {
    "id": "68b5d99c-aaae-d0d5-3568-3a0043ecfe08",
    "userId": "e53c4060-953f-8498-279c-39ffcd56e8f1",
    "userType": 2,
    "userName": "乔老师",
    "userImg": "https://thirdwx.qlogo.cn/mmopen/vi_32/IlkVVC2bz8vG1ayWszKKnRHZ15xvKDhyic7uEBaQONl9e1SiakeJ4vg2jibJMCcRwXsfgZZjDYYdjWwLvS61XbqqA/132",
    "video": "",
    "vodVideoId": "12ffa7551c28481d86997c1322f0b0f5",
    "pic": "https://outin-7a5ad9bab23f11eb9d9500163e1c7426.oss-cn-shanghai.aliyuncs.com/image/cover/089CAA509F324001823C4E62E0E470B7-6-2.png",
    "text": "",
    "videoTime": "114",
    "videoType": 0,
    "width": "720",
    "high": "1280",
    "support": 0,
    "followStatus": 0,
    "creationTime": "2021-11-18 14:33:36",
    "forwardingNumber": 1,
    "commentsCount": 0,
    "isGiveLike": "false",
    "isCollection": "false",
    "isSelf": false,
    "teacherId": "bcae55b4-543a-213b-669f-39fffb9ced9f",
    "teacherUserId": "e53c4060-953f-8498-279c-39ffcd56e8f1",
    "grade": 3,
    "teacherName": "乔老师",
    "teacherIconPicUrl": "https://oss.dayulong.cn/20211104134631671_5d9fbfb6-67e6-4f3a-812b-6d35d8314c72.jpg",
    "businessName": "龙华",
    "category": 2
  },
  {
    "id": "36804a55-2425-9913-3144-3a0044f61fb5",
    "userId": "51fbc9a1-f37a-a541-eeb2-39fc05998d8b",
    "userType": 2,
    "userName": "安迪老师",
    "userImg": "https://oss.dayulong.cn/20210425165222317_2fff2aa0-d385-415a-84cb-96951b4c8c2e.jpg",
    "video": "",
    "vodVideoId": "27ab675cadf447178513e5da807f104e",
    "pic": "https://outin-7a5ad9bab23f11eb9d9500163e1c7426.oss-cn-shanghai.aliyuncs.com/image/cover/9A7C97B556B54DB9AE726A1CEB8FC600-6-2.png",
    "text": "",
    "videoTime": "28",
    "videoType": 0,
    "width": "720",
    "high": "1312",
    "support": 1,
    "followStatus": 0,
    "creationTime": "2021-11-18 19:23:11",
    "forwardingNumber": 0,
    "commentsCount": 0,
    "isGiveLike": "false",
    "isCollection": "false",
    "isSelf": false,
    "teacherId": "4d37f329-b6b9-10df-9859-39fc05ae4048",
    "teacherUserId": "51fbc9a1-f37a-a541-eeb2-39fc05998d8b",
    "grade": 4.5,
    "teacherName": "安迪老师",
    "teacherIconPicUrl": "https://oss.dayulong.cn/20210427171626029_feb21b6d-16ab-4e32-a826-f4e17170e7f7.jpg",
    "businessName": "塘桥",
    "category": 2
  },
  {
    "id": "5d524985-7c42-fd58-12e7-39fdcfe2afe4",
    "userId": "3d003e00-dd78-803e-5169-39fae0429a4e",
    "userType": 2,
    "userName": "康康老师",
    "userImg": "https://oss.dayulong.cn/20210618143738669_00babb74-32f9-485f-993d-5229f4ff7a51.jpg",
    "video": "",
    "vodVideoId": "ce840bfc647740ef8110f4e006d0ecd4",
    "pic": "https://outin-7a5ad9bab23f11eb9d9500163e1c7426.oss-cn-shanghai.aliyuncs.com/image/cover/52F20FD00085479587A67B7F24B95227-6-2.png",
    "text": "",
    "videoTime": "33",
    "videoType": 0,
    "width": "1080",
    "high": "1920",
    "support": 0,
    "followStatus": 0,
    "creationTime": "2021-07-19 15:40:48",
    "forwardingNumber": 0,
    "commentsCount": 0,
    "isGiveLike": "false",
    "isCollection": "false",
    "isSelf": false,
    "teacherId": "50c04cc9-7fbb-ba3d-b012-39fae04617ec",
    "teacherUserId": "3d003e00-dd78-803e-5169-39fae0429a4e",
    "grade": 4.5,
    "teacherName": "康康老师",
    "teacherIconPicUrl": "https://oss.dayulong.cn/20210719160817016_0a052690-591b-4fdf-8bdb-eb1dee4e7887.jpg",
    "businessName": "曹家渡",
    "category": 2
  },
  {
    "id": "cd217472-8d32-7156-300e-39ffe3b7f36b",
    "userId": "82057e52-4a49-b29b-716b-39fae4be28ef",
    "userType": 2,
    "userName": "孙老师",
    "userImg": "https://oss.dayulong.cn/20210604221328800_6962f183-d0a2-485e-a53b-0e822ca47872.jpg",
    "video": "",
    "vodVideoId": "9f57d18a907d45978d912aabb4cde4f2",
    "pic": "https://outin-7a5ad9bab23f11eb9d9500163e1c7426.oss-cn-shanghai.aliyuncs.com/image/cover/D6B581BA0B84445E8DE90EE3FC44E908-6-2.png",
    "text": "",
    "videoTime": "39",
    "videoType": 0,
    "width": "1920",
    "high": "1080",
    "support": 1,
    "followStatus": 0,
    "creationTime": "2021-10-30 22:12:07",
    "forwardingNumber": 0,
    "commentsCount": 0,
    "isGiveLike": "false",
    "isCollection": "false",
    "isSelf": false,
    "teacherId": "d54e4a5c-b926-fa0a-0dd9-39faef1b58c1",
    "teacherUserId": "82057e52-4a49-b29b-716b-39fae4be28ef",
    "grade": 5,
    "teacherName": "孙老师",
    "teacherIconPicUrl": "https://oss.dayulong.cn/20210426095828197_55d7c296-ca7d-4586-81be-eda1f5466fb3.jpg",
    "businessName": "塘桥",
    "category": 2
  },
  {
    "id": "7d9410d3-1b86-0b18-7524-3a0055069d0c",
    "userId": "6d1197a5-9d99-8991-38ae-3a004f783b10",
    "userType": 1,
    "userName": "符琪娅",
    "userImg": "/headpic/1379.png",
    "video": "",
    "vodVideoId": "ec53e4de2a1c4c049a4f01732519e369",
    "pic": "https://oss.dayulong.cn/20211121221509134_4f8c575d-4358-4226-b1b5-ce44318ef8ec.jpg",
    "text": "",
    "videoTime": "15.584",
    "videoType": 0,
    "width": "3840",
    "high": "2160",
    "support": 0,
    "followStatus": 0,
    "creationTime": "2021-11-21 22:15:07",
    "forwardingNumber": 0,
    "commentsCount": 0,
    "isGiveLike": "false",
    "isCollection": "false",
    "isSelf": false,
    "teacherId": "666864e7-8c6b-4126-0ed0-3a004f87ce5b",
    "teacherUserId": "6d1197a5-9d99-8991-38ae-3a004f783b10",
    "grade": 3,
    "teacherName": "符琪娅",
    "teacherIconPicUrl": "https://oss.dayulong.cn/20211120225820345_1e0fb896-b7ea-4808-a718-a045740394ae.jpg",
    "businessName": "陆家嘴",
    "category": 2
  },
  {
    "id": "a8869a4e-6fd3-e896-06a7-3a0052c843bf",
    "userId": "6d1197a5-9d99-8991-38ae-3a004f783b10",
    "userType": 1,
    "userName": "符琪娅",
    "userImg": "/headpic/1379.png",
    "video": "",
    "vodVideoId": "86879e4989094a288a5ba8936421a130",
    "pic": "https://oss.dayulong.cn/20211121114748046_e75acbd7-b7f1-4f95-afbd-713f53a6d459.jpg",
    "text": "《Waiting》",
    "videoTime": "25.536",
    "videoType": 0,
    "width": "1080",
    "high": "1920",
    "support": 1,
    "followStatus": 0,
    "creationTime": "2021-11-21 11:47:47",
    "forwardingNumber": 0,
    "commentsCount": 0,
    "isGiveLike": "false",
    "isCollection": "false",
    "isSelf": false,
    "teacherId": "666864e7-8c6b-4126-0ed0-3a004f87ce5b",
    "teacherUserId": "6d1197a5-9d99-8991-38ae-3a004f783b10",
    "grade": 3,
    "teacherName": "符琪娅",
    "teacherIconPicUrl": "https://oss.dayulong.cn/20211120225820345_1e0fb896-b7ea-4808-a718-a045740394ae.jpg",
    "businessName": "陆家嘴",
    "category": 2
  },
  {
    "id": "12e8117b-672c-5463-a107-39fff221a6e4",
    "userId": "b519fd70-3461-00e8-38a4-39fb03f111f8",
    "userType": 2,
    "userName": "小闫老师",
    "userImg": "/headpic/60.png",
    "video": "",
    "vodVideoId": "fe0a368329464ce99236234f26cfcd86",
    "pic": "https://oss.dayulong.cn/20211102172215926_a3a15fe3-2c30-42d4-8303-44b9227db369.jpg",
    "text": "前奏来个两小节",
    "videoTime": "15.613333",
    "videoType": 0,
    "width": "1280",
    "high": "720",
    "support": 0,
    "followStatus": 0,
    "creationTime": "2021-11-02 17:22:15",
    "forwardingNumber": 0,
    "commentsCount": 0,
    "isGiveLike": "false",
    "isCollection": "false",
    "isSelf": false,
    "teacherId": "077a32ab-aa57-92d2-3732-39fb042261e9",
    "teacherUserId": "b519fd70-3461-00e8-38a4-39fb03f111f8",
    "grade": 4,
    "teacherName": "小闫老师",
    "teacherIconPicUrl": "https://oss.dayulong.cn/20210426100238435_11c353ce-99ab-4d73-9a66-d67fa53f1526.jpg",
    "businessName": "龙华",
    "category": 2
  },
  {
    "id": "11ca08a2-4a96-4d45-eeaa-3a005506ec0f",
    "userId": "6d1197a5-9d99-8991-38ae-3a004f783b10",
    "userType": 1,
    "userName": "符琪娅",
    "userImg": "/headpic/1379.png",
    "video": "",
    "vodVideoId": "ce639eb7b2804586abea2d85c900d46f",
    "pic": "https://oss.dayulong.cn/20211121221529496_897fd562-d74a-4c22-b434-dc68f74fe029.jpg",
    "text": "",
    "videoTime": "13.017",
    "videoType": 0,
    "width": "3840",
    "high": "2160",
    "support": 0,
    "followStatus": 0,
    "creationTime": "2021-11-21 22:15:28",
    "forwardingNumber": 0,
    "commentsCount": 0,
    "isGiveLike": "false",
    "isCollection": "false",
    "isSelf": false,
    "teacherId": "666864e7-8c6b-4126-0ed0-3a004f87ce5b",
    "teacherUserId": "6d1197a5-9d99-8991-38ae-3a004f783b10",
    "grade": 3,
    "teacherName": "符琪娅",
    "teacherIconPicUrl": "https://oss.dayulong.cn/20211120225820345_1e0fb896-b7ea-4808-a718-a045740394ae.jpg",
    "businessName": "陆家嘴",
    "category": 2
  },
  {
    "id": "a1a4c830-8cd6-2833-a7b8-3a005888d30a",
    "userId": "6d1197a5-9d99-8991-38ae-3a004f783b10",
    "userType": 1,
    "userName": "符琪娅",
    "userImg": "/headpic/1379.png",
    "video": "",
    "vodVideoId": "cb0cd5f35def4a97b0f60d6075e33288",
    "pic": "https://oss.dayulong.cn/20211122143614028_6ee120e7-19ed-4067-8a57-7215bf8ccee2.jpg",
    "text": "",
    "videoTime": "16.317",
    "videoType": 0,
    "width": "3840",
    "high": "2160",
    "support": 0,
    "followStatus": 0,
    "creationTime": "2021-11-22 14:36:12",
    "forwardingNumber": 0,
    "commentsCount": 0,
    "isGiveLike": "false",
    "isCollection": "false",
    "isSelf": false,
    "teacherId": "666864e7-8c6b-4126-0ed0-3a004f87ce5b",
    "teacherUserId": "6d1197a5-9d99-8991-38ae-3a004f783b10",
    "grade": 3,
    "teacherName": "符琪娅",
    "teacherIconPicUrl": "https://oss.dayulong.cn/20211120225820345_1e0fb896-b7ea-4808-a718-a045740394ae.jpg",
    "businessName": "陆家嘴",
    "category": 2
  },
  {
    "id": "07e4b69b-6c44-4b80-0730-3a005510b9c6",
    "userId": "6d1197a5-9d99-8991-38ae-3a004f783b10",
    "userType": 1,
    "userName": "符琪娅",
    "userImg": "/headpic/1379.png",
    "video": "",
    "vodVideoId": "6638a3e745a34cc69e0a193c4a877af3",
    "pic": "https://oss.dayulong.cn/20211121222611053_ef771096-6a91-4864-a952-a45f03149411.jpg",
    "text": "",
    "videoTime": "20.266667",
    "videoType": 0,
    "width": "1080",
    "high": "1920",
    "support": 0,
    "followStatus": 0,
    "creationTime": "2021-11-21 22:26:10",
    "forwardingNumber": 0,
    "commentsCount": 0,
    "isGiveLike": "false",
    "isCollection": "false",
    "isSelf": false,
    "teacherId": "666864e7-8c6b-4126-0ed0-3a004f87ce5b",
    "teacherUserId": "6d1197a5-9d99-8991-38ae-3a004f783b10",
    "grade": 3,
    "teacherName": "符琪娅",
    "teacherIconPicUrl": "https://oss.dayulong.cn/20211120225820345_1e0fb896-b7ea-4808-a718-a045740394ae.jpg",
    "businessName": "陆家嘴",
    "category": 2
  },
  {
    "id": "11bb3fb9-afcd-f15c-c897-3a000b09e3bc",
    "userId": "062c4de5-6146-aa37-4ec3-39fd9bb82b4b",
    "userType": 2,
    "userName": "杜杜老师",
    "userImg": "https://oss.dayulong.cn/20210710090354584_b2374b1a-d7b7-4501-a75c-b50d9805fdff.jpg",
    "video": "",
    "vodVideoId": "a18f3a63ae4140029156016fc019de19",
    "pic": "https://outin-7a5ad9bab23f11eb9d9500163e1c7426.oss-cn-shanghai.aliyuncs.com/image/cover/3C2EA8A5B9864A6E832935C6277BDA40-6-2.png",
    "text": "《Talking to The Moon》",
    "videoTime": "18",
    "videoType": 0,
    "width": "1080",
    "high": "1440",
    "support": 0,
    "followStatus": 0,
    "creationTime": "2021-11-07 13:26:48",
    "forwardingNumber": 0,
    "commentsCount": 0,
    "isGiveLike": "false",
    "isCollection": "false",
    "isSelf": false,
    "teacherId": "faf13238-65f9-c832-28a1-39fda02413df",
    "teacherUserId": "062c4de5-6146-aa37-4ec3-39fd9bb82b4b",
    "grade": 4,
    "teacherName": "杜杜老师",
    "teacherIconPicUrl": "https://oss.dayulong.cn/20210710093211431_4dc71822-b02e-4b0f-ae73-3e40fd8b2d6a.jpg",
    "businessName": "中山公园",
    "category": 2
  },
  {
    "id": "9b27d034-6584-32c5-fbfb-3a0058a8b10f",
    "userId": "b309424d-4893-866c-87db-3a004f106197",
    "userType": 1,
    "userName": "沈雨婷",
    "userImg": "https://oss.dayulong.cn/20211130013352264_e940ec61-ff60-4008-81e2-d94ef9c8c609.jpg",
    "video": "",
    "vodVideoId": "f00fa201e2f0439cb0ab0a37194fd115",
    "pic": "https://oss.dayulong.cn/20211122151101755_8058d864-c6f9-405b-b7de-0f7d9d1b811d.jpg",
    "text": "",
    "videoTime": "19.200726",
    "videoType": 0,
    "width": "1190",
    "high": "668",
    "support": 0,
    "followStatus": 0,
    "creationTime": "2021-11-22 15:11:01",
    "forwardingNumber": 0,
    "commentsCount": 0,
    "isGiveLike": "false",
    "isCollection": "false",
    "isSelf": false,
    "teacherId": "2c8fe9af-5847-2340-8f26-3a0054eb20f0",
    "teacherUserId": "b309424d-4893-866c-87db-3a004f106197",
    "grade": 3,
    "teacherName": "沈雨婷",
    "teacherIconPicUrl": "https://oss.dayulong.cn/20211124105614835_710a08a0-e452-4705-b403-377006b9cb82.jpg",
    "businessName": "陆家嘴",
    "category": 2
  },
  {
    "id": "677a2da1-95ec-5962-cadc-3a004cc03868",
    "userId": "53ee9c85-87ec-f5b9-7cc4-39fff239a8a4",
    "userType": 2,
    "userName": "郑老师",
    "userImg": "https://thirdwx.qlogo.cn/mmopen/vi_32/LPic6DqtdWKMy1eOC8RW6IzreibFVkM8QnjLxXkuNsSsapQicN2KLsuoCoa9jn5eD2zVxL8gRZs3SIHOF4ngP9VibQ/132",
    "video": "",
    "vodVideoId": "ce828993e52e4f9ba61d7e93a1aed966",
    "pic": "https://outin-7a5ad9bab23f11eb9d9500163e1c7426.oss-cn-shanghai.aliyuncs.com/image/cover/E5497F1637114B7A9C95366731E978E7-6-2.png",
    "text": "双截棍",
    "videoTime": "20",
    "videoType": 0,
    "width": "1920",
    "high": "1080",
    "support": 0,
    "followStatus": 0,
    "creationTime": "2021-11-20 07:41:16",
    "forwardingNumber": 0,
    "commentsCount": 0,
    "isGiveLike": "false",
    "isCollection": "false",
    "isSelf": false,
    "teacherId": "37c54c45-a83f-deda-347f-39fff23b71eb",
    "teacherUserId": "53ee9c85-87ec-f5b9-7cc4-39fff239a8a4",
    "grade": 2.5,
    "teacherName": "郑老师",
    "teacherIconPicUrl": "https://oss.dayulong.cn/20211102175502648_a0092cb9-e6a9-4a08-9c90-eff9635da276.jpg",
    "businessName": "龙华",
    "category": 2
  },
  {
    "id": "e42bff9f-7277-95a9-890a-3a0055074bd9",
    "userId": "6d1197a5-9d99-8991-38ae-3a004f783b10",
    "userType": 1,
    "userName": "符琪娅",
    "userImg": "/headpic/1379.png",
    "video": "",
    "vodVideoId": "e0c799bba3084e08810841bc4b2301be",
    "pic": "https://oss.dayulong.cn/20211121221553231_e45c6e89-7c90-4fe9-a05d-eb72d0b51701.jpg",
    "text": "",
    "videoTime": "24.59",
    "videoType": 0,
    "width": "1920",
    "high": "1080",
    "support": 0,
    "followStatus": 0,
    "creationTime": "2021-11-21 22:15:52",
    "forwardingNumber": 0,
    "commentsCount": 0,
    "isGiveLike": "false",
    "isCollection": "false",
    "isSelf": false,
    "teacherId": "666864e7-8c6b-4126-0ed0-3a004f87ce5b",
    "teacherUserId": "6d1197a5-9d99-8991-38ae-3a004f783b10",
    "grade": 3,
    "teacherName": "符琪娅",
    "teacherIconPicUrl": "https://oss.dayulong.cn/20211120225820345_1e0fb896-b7ea-4808-a718-a045740394ae.jpg",
    "businessName": "陆家嘴",
    "category": 2
  },
  {
    "id": "b22dbe6d-d3fa-63dc-2c82-3a00588469f2",
    "userId": "6d1197a5-9d99-8991-38ae-3a004f783b10",
    "userType": 1,
    "userName": "符琪娅",
    "userImg": "/headpic/1379.png",
    "video": "",
    "vodVideoId": "2350efdc1a884070aaae63b0c6ffcd6a",
    "pic": "https://oss.dayulong.cn/20211122143124461_a8012a91-437f-402f-8183-b84b534c35cf.jpg",
    "text": "",
    "videoTime": "11.517",
    "videoType": 0,
    "width": "1280",
    "high": "720",
    "support": 0,
    "followStatus": 0,
    "creationTime": "2021-11-22 14:31:23",
    "forwardingNumber": 0,
    "commentsCount": 0,
    "isGiveLike": "false",
    "isCollection": "false",
    "isSelf": false,
    "teacherId": "666864e7-8c6b-4126-0ed0-3a004f87ce5b",
    "teacherUserId": "6d1197a5-9d99-8991-38ae-3a004f783b10",
    "grade": 3,
    "teacherName": "符琪娅",
    "teacherIconPicUrl": "https://oss.dayulong.cn/20211120225820345_1e0fb896-b7ea-4808-a718-a045740394ae.jpg",
    "businessName": "陆家嘴",
    "category": 2
  },
  {
    "id": "6a479f40-9047-3882-40ac-39fe1cdfb230",
    "userId": "4cc9cbec-26c0-64fb-5897-39fe0d6ffb58",
    "userType": 2,
    "userName": "董老师",
    "userImg": "https://oss.dayulong.cn/20210731143229861_88c72a32-1174-4a8b-8bcd-72bfdbb1149e.jpg",
    "video": "",
    "vodVideoId": "9bc7e6bdd9624bb2accfa5d345c9bd10",
    "pic": "https://outin-7a5ad9bab23f11eb9d9500163e1c7426.oss-cn-shanghai.aliyuncs.com/image/cover/EEBD9D11AD2E4CBBA3675A93415ED59F-6-2.png",
    "text": "想说",
    "videoTime": "25",
    "videoType": 0,
    "width": "848",
    "high": "544",
    "support": 2,
    "followStatus": 0,
    "creationTime": "2021-08-03 14:28:18",
    "forwardingNumber": 0,
    "commentsCount": 0,
    "isGiveLike": "false",
    "isCollection": "false",
    "isSelf": false,
    "teacherId": "97dd87ad-d7b4-45ef-97d8-39fe0d78fa0c",
    "teacherUserId": "4cc9cbec-26c0-64fb-5897-39fe0d6ffb58",
    "grade": 3,
    "teacherName": "董老师",
    "teacherIconPicUrl": "https://oss.dayulong.cn/20210731185044229_8db08f6a-6ff5-43d3-b003-81312fcf949d.jpg",
    "businessName": "五角场",
    "category": 2
  },
  {
    "id": "2d5c911f-8aac-cb84-7548-3a0043ec42e5",
    "userId": "e53c4060-953f-8498-279c-39ffcd56e8f1",
    "userType": 2,
    "userName": "乔老师",
    "userImg": "https://thirdwx.qlogo.cn/mmopen/vi_32/IlkVVC2bz8vG1ayWszKKnRHZ15xvKDhyic7uEBaQONl9e1SiakeJ4vg2jibJMCcRwXsfgZZjDYYdjWwLvS61XbqqA/132",
    "video": "",
    "vodVideoId": "f6e9817850344a53a2fd710290983400",
    "pic": "https://outin-7a5ad9bab23f11eb9d9500163e1c7426.oss-cn-shanghai.aliyuncs.com/image/cover/21A8BBD75332404887F40934FE7A9B9F-6-2.png",
    "text": "情深深雨蒙蒙",
    "videoTime": "71",
    "videoType": 0,
    "width": "720",
    "high": "960",
    "support": 1,
    "followStatus": 0,
    "creationTime": "2021-11-18 14:32:48",
    "forwardingNumber": 0,
    "commentsCount": 0,
    "isGiveLike": "false",
    "isCollection": "false",
    "isSelf": false,
    "teacherId": "bcae55b4-543a-213b-669f-39fffb9ced9f",
    "teacherUserId": "e53c4060-953f-8498-279c-39ffcd56e8f1",
    "grade": 3,
    "teacherName": "乔老师",
    "teacherIconPicUrl": "https://oss.dayulong.cn/20211104134631671_5d9fbfb6-67e6-4f3a-812b-6d35d8314c72.jpg",
    "businessName": "龙华",
    "category": 2
  },
  {
    "id": "715e25a0-685e-2067-58a7-3a005507a389",
    "userId": "6d1197a5-9d99-8991-38ae-3a004f783b10",
    "userType": 1,
    "userName": "符琪娅",
    "userImg": "/headpic/1379.png",
    "video": "",
    "vodVideoId": "1dfc0aa1c07545dc89cbca8b77f54bb7",
    "pic": "https://oss.dayulong.cn/20211121221615490_0d9fced5-8d92-4952-b5eb-fea3ea319abd.jpg",
    "text": "",
    "videoTime": "15.047",
    "videoType": 0,
    "width": "1906",
    "high": "1080",
    "support": 0,
    "followStatus": 0,
    "creationTime": "2021-11-21 22:16:14",
    "forwardingNumber": 0,
    "commentsCount": 0,
    "isGiveLike": "false",
    "isCollection": "false",
    "isSelf": false,
    "teacherId": "666864e7-8c6b-4126-0ed0-3a004f87ce5b",
    "teacherUserId": "6d1197a5-9d99-8991-38ae-3a004f783b10",
    "grade": 3,
    "teacherName": "符琪娅",
    "teacherIconPicUrl": "https://oss.dayulong.cn/20211120225820345_1e0fb896-b7ea-4808-a718-a045740394ae.jpg",
    "businessName": "陆家嘴",
    "category": 2
  },
  {
    "id": "69723d38-ae11-d4d3-c6b0-39fe7da7230e",
    "userId": "7505623f-f8af-f847-e329-39fb8efefb47",
    "userType": 2,
    "userName": "凡凡老师",
    "userImg": "https://oss.dayulong.cn/20210424231102654_97739769-0e00-448e-a331-2043e5a3437b.jpg",
    "video": "",
    "vodVideoId": "8e365ebbde184ffcaecb01888c4ecb6a",
    "pic": "https://outin-7a5ad9bab23f11eb9d9500163e1c7426.oss-cn-shanghai.aliyuncs.com/image/cover/1C7654E4805840F8976D06E461AE7888-6-2.png",
    "text": "",
    "videoTime": "13",
    "videoType": 0,
    "width": "544",
    "high": "960",
    "support": 1,
    "followStatus": 0,
    "creationTime": "2021-08-22 09:29:41",
    "forwardingNumber": 0,
    "commentsCount": 0,
    "isGiveLike": "false",
    "isCollection": "false",
    "isSelf": false,
    "teacherId": "bc6d926d-82b5-c149-0516-39fbcc5989c8",
    "teacherUserId": "7505623f-f8af-f847-e329-39fb8efefb47",
    "grade": 4.5,
    "teacherName": "凡凡老师",
    "teacherIconPicUrl": "https://oss.dayulong.cn/20210428152915633_5860c513-133d-475c-b845-c436e8f45916.jpg",
    "businessName": "塘桥",
    "category": 2
  }
]